{
  "cordova-plugin-whitelist": {
    "source": {
      "type": "registry",
      "id": "cordova-plugin-whitelist@1"
    },
    "is_top_level": true,
    "variables": {}
  },
  "cordova-plugin-file": {
    "source": {
      "type": "registry",
      "id": "cordova-plugin-file@^6.0.0"
    },
    "is_top_level": false,
    "variables": {}
  },
  "cordova-plugin-media": {
    "source": {
      "type": "registry",
      "id": "cordova-plugin-media@5.0.2"
    },
    "is_top_level": true,
    "variables": {
      "KEEP_AVAUDIOSESSION_ALWAYS_ACTIVE": "NO"
    }
  }
}